{
    "HOST": "localhost",
    "USER": "root",
    "PASSWORD": "",
    "DB": "gf-temp",
    "dialect": "mysql",
    "pool": {
        "max": 5,
        "min": 0,
        "acquire": 30000,
        "idle": 10000
    }
}