[
    {
        "id": 535,
        "resourceId": 190,
        "tripId": 535,
        "createdAt": "2021-10-21T09:25:43.000Z",
        "updatedAt": "2021-10-21T09:25:43.000Z"
    },
    {
        "id": 536,
        "resourceId": 190,
        "tripId": 536,
        "createdAt": "2021-10-21T09:25:43.000Z",
        "updatedAt": "2021-10-21T09:25:43.000Z"
    },
    {
        "id": 537,
        "resourceId": 190,
        "tripId": 537,
        "createdAt": "2021-10-21T09:25:43.000Z",
        "updatedAt": "2021-10-21T09:25:43.000Z"
    },
    {
        "id": 538,
        "resourceId": 190,
        "tripId": 538,
        "createdAt": "2021-10-21T09:25:43.000Z",
        "updatedAt": "2021-10-21T09:25:43.000Z"
    },
    {
        "id": 539,
        "resourceId": 190,
        "tripId": 539,
        "createdAt": "2021-10-21T09:25:43.000Z",
        "updatedAt": "2021-10-21T09:25:43.000Z"
    }
]